-------------------------------------------------------------------------
|                       |      HighestHeap      |      HighestHeap      |
-------------------------------------------------------------------------
|      HighestHeap      |          268          |          258          |
|      HighestHeap      |          231          |          243          |
-------------------------------------------------------------------------
-------------------------------------------------------------------------
|                       |      RandomHeap       |      HighestHeap      |
-------------------------------------------------------------------------
|      RandomHeap       |          242          |          262          |
|      HighestHeap      |          258          |          238          |
-------------------------------------------------------------------------
-------------------------------------------------------------------------
|                       |      HighestHeap      |      RandomHeap       |
-------------------------------------------------------------------------
|      HighestHeap      |          241          |          251          |
|      RandomHeap       |          257          |          251          |
-------------------------------------------------------------------------
-------------------------------------------------------------------------
|                       |      RandomHeap       |      RandomHeap       |
-------------------------------------------------------------------------
|      RandomHeap       |          232          |          258          |
|      RandomHeap       |          275          |          235          |
-------------------------------------------------------------------------
-------------------------------------------------------------------------
|                       |        Random         |      HighestHeap      |
-------------------------------------------------------------------------
|        Random         |           8           |          10           |
|      HighestHeap      |          506          |          476          |
-------------------------------------------------------------------------
-------------------------------------------------------------------------
|                       |      HighestHeap      |        Random         |
-------------------------------------------------------------------------
|      HighestHeap      |          498          |          496          |
|        Random         |           2           |           4           |
-------------------------------------------------------------------------
-------------------------------------------------------------------------
|                       |        Random         |      RandomHeap       |
-------------------------------------------------------------------------
|        Random         |           1           |           0           |
|      RandomHeap       |          482          |          517          |
-------------------------------------------------------------------------
-------------------------------------------------------------------------
|                       |      RandomHeap       |        Random         |
-------------------------------------------------------------------------
|      RandomHeap       |          536          |          464          |
|        Random         |           0           |           0           |
-------------------------------------------------------------------------
-------------------------------------------------------------------------
|                       |        Random         |        Random         |
-------------------------------------------------------------------------
|        Random         |          259          |          229          |
|        Random         |          238          |          274          |
-------------------------------------------------------------------------
-------------------------------------------------------------------------
|                       |        Optimal        |      HighestHeap      |
-------------------------------------------------------------------------
|        Optimal        |          527          |          473          |
|      HighestHeap      |           0           |           0           |
-------------------------------------------------------------------------
-------------------------------------------------------------------------
|                       |      HighestHeap      |        Optimal        |
-------------------------------------------------------------------------
|      HighestHeap      |           0           |           0           |
|        Optimal        |          513          |          487          |
-------------------------------------------------------------------------
-------------------------------------------------------------------------
|                       |        Optimal        |      RandomHeap       |
-------------------------------------------------------------------------
|        Optimal        |          506          |          494          |
|      RandomHeap       |           0           |           0           |
-------------------------------------------------------------------------
-------------------------------------------------------------------------
|                       |      RandomHeap       |        Optimal        |
-------------------------------------------------------------------------
|      RandomHeap       |           0           |           0           |
|        Optimal        |          500          |          500          |
-------------------------------------------------------------------------
-------------------------------------------------------------------------
|                       |        Optimal        |        Random         |
-------------------------------------------------------------------------
|        Optimal        |          483          |          517          |
|        Random         |           0           |           0           |
-------------------------------------------------------------------------
-------------------------------------------------------------------------
|                       |        Random         |        Optimal        |
-------------------------------------------------------------------------
|        Random         |           0           |           0           |
|        Optimal        |          516          |          484          |
-------------------------------------------------------------------------
-------------------------------------------------------------------------
|                       |        Optimal        |        Optimal        |
-------------------------------------------------------------------------
|        Optimal        |          484          |           0           |
|        Optimal        |           0           |          516          |
-------------------------------------------------------------------------